conv_simple/conv_project/conv_project.sim/sim_1/behav/xsim/output.vcd
$date
   Wed Jun 23 22:57:55 2021
$end
$version
  2020.2
$end
$timescale
  1ps
$end
$scope module tb_conv_simple $end
$var reg 1 ! clk $end
$var reg 1 " rst_n $end
$var reg 8 # i_x [7:0] $end
$var reg 8 $ i_w [7:0] $end
$var reg 5 % i_addr [4:0] $end
$var reg 1 & i_w_en $end
$var reg 1 ' i_valid $end
$var wire 16 ( o_y [15:0] $end
$var wire 1 ) o_valid $end
$var integer 32 * fd_x $end
$var integer 32 + fd_w $end
$var integer 32 , fo $end
$var integer 32 - h_x $end
$var integer 32 . h_w $end
$var integer 32 / i $end
$var integer 32 0 j $end
$var parameter 32 1 KERNEL_SIZE [31:0] $end
$var parameter 32 2 WEIGHT_BW [31:0] $end
$var parameter 32 3 DATA_BW [31:0] $end
$var parameter 32 4 ADDR_BW [31:0] $end
$var parameter 32 5 SUM_BW [31:0] $end
$var parameter 32 6 KERNEL_BW [31:0] $end
$var parameter 32 7 DATA_SIZE [31:0] $end
$var parameter 32 8 STRIDE [31:0] $end
$scope module TOP $end
$var wire 1 9 clk $end
$var wire 1 : rst_n $end
$var wire 8 ; i_x [7:0] $end
$var wire 8 < i_w [7:0] $end
$var wire 5 = i_addr [4:0] $end
$var wire 1 > i_w_en $end
$var wire 1 ? i_valid $end
$var wire 16 ( o_y [15:0] $end
$var wire 1 ) o_valid $end
$var wire 8 @ w_x [7:0] $end
$var wire 16 A w_y [15:0] $end
$var wire 1 B w_valid $end
$var parameter 0 C KERNEL_SIZE $end
$var parameter 0 D WEIGHT_BW $end
$var parameter 0 E DATA_BW $end
$var parameter 0 F ADDR_BW $end
$var parameter 0 G SUM_BW $end
$var parameter 0 H KERNEL_BW $end
$var parameter 0 I DATA_SIZE $end
$var parameter 0 J STRIDE $end
$var parameter 32 K DELAY_NB [31:0] $end
$var parameter 32 L DELAY_NB_CON [31:0] $end
$scope module PREPROCESSING $end
$var wire 1 9 clk $end
$var wire 1 : rst_n $end
$var wire 8 ; i_x [7:0] $end
$var reg 8 M o_x_d [7:0] $end
$var parameter 0 N DATA_BW $end
$upscope $end
$scope module CONV_SINGLE[0].genblk1.conv_single $end
$var wire 1 9 clk $end
$var wire 1 : rst_n $end
$var wire 1 > i_w_en $end
$var wire 8 @ i_x [7:0] $end
$var wire 5 = i_addr [4:0] $end
$var wire 16 O i_psum [15:0] $end
$var wire 8 < i_w [7:0] $end
$var wire 16 P o_psum [15:0] $end
$var parameter 0 Q KERNEL_SIZE $end
$var parameter 0 R WEIGHT_BW $end
$var parameter 0 S DATA_BW $end
$var parameter 0 T SUM_BW $end
$var parameter 0 U ADDR_BW $end
$var parameter 0 V CONV_ADDR $end
$scope module PE[0].genblk1.pe $end
$var wire 1 9 clk $end
$var wire 1 : rst_n $end
$var wire 1 > i_w_en $end
$var wire 5 = i_addr [4:0] $end
$var wire 8 < i_w [7:0] $end
$var wire 8 @ i_x [7:0] $end
$var wire 16 O i_psum [15:0] $end
$var reg 17 W o_psum [16:0] $end
$var reg 8 X weight [7:0] $end
$var parameter 0 Y WEIGHT_BW $end
$var parameter 0 Z DATA_BW $end
$var parameter 0 [ SUM_BW $end
$var parameter 0 \ ADDR_BW $end
$var parameter 0 ] ELEMENT_ADDR $end
$upscope $end
$scope module PE[1].genblk1.pe $end
$var wire 1 9 clk $end
$var wire 1 : rst_n $end
$var wire 1 > i_w_en $end
$var wire 5 = i_addr [4:0] $end
$var wire 8 < i_w [7:0] $end
$var wire 8 @ i_x [7:0] $end
$var wire 17 ^ i_psum [16:0] $end
$var reg 18 _ o_psum [17:0] $end
$var reg 8 ` weight [7:0] $end
$var parameter 0 a WEIGHT_BW $end
$var parameter 0 b DATA_BW $end
$var parameter 0 c SUM_BW $end
$var parameter 0 d ADDR_BW $end
$var parameter 0 e ELEMENT_ADDR $end
$upscope $end
$scope module PE[2].genblk1.pe $end
$var wire 1 9 clk $end
$var wire 1 : rst_n $end
$var wire 1 > i_w_en $end
$var wire 5 = i_addr [4:0] $end
$var wire 8 < i_w [7:0] $end
$var wire 8 @ i_x [7:0] $end
$var wire 18 f i_psum [17:0] $end
$var reg 19 g o_psum [18:0] $end
$var reg 8 h weight [7:0] $end
$var parameter 0 i WEIGHT_BW $end
$var parameter 0 j DATA_BW $end
$var parameter 0 k SUM_BW $end
$var parameter 0 l ADDR_BW $end
$var parameter 0 m ELEMENT_ADDR $end
$upscope $end
$scope module PE[3].genblk1.pe $end
$var wire 1 9 clk $end
$var wire 1 : rst_n $end
$var wire 1 > i_w_en $end
$var wire 5 = i_addr [4:0] $end
$var wire 8 < i_w [7:0] $end
$var wire 8 @ i_x [7:0] $end
$var wire 19 n i_psum [18:0] $end
$var reg 20 o o_psum [19:0] $end
$var reg 8 p weight [7:0] $end
$var parameter 0 q WEIGHT_BW $end
$var parameter 0 r DATA_BW $end
$var parameter 0 s SUM_BW $end
$var parameter 0 t ADDR_BW $end
$var parameter 0 u ELEMENT_ADDR $end
$upscope $end
$scope module PE[4].genblk1.pe $end
$var wire 1 9 clk $end
$var wire 1 : rst_n $end
$var wire 1 > i_w_en $end
$var wire 5 = i_addr [4:0] $end
$var wire 8 < i_w [7:0] $end
$var wire 8 @ i_x [7:0] $end
$var wire 20 v i_psum [19:0] $end
$var reg 21 w o_psum [20:0] $end
$var reg 8 x weight [7:0] $end
$var parameter 0 y WEIGHT_BW $end
$var parameter 0 z DATA_BW $end
$var parameter 0 { SUM_BW $end
$var parameter 0 | ADDR_BW $end
$var parameter 0 } ELEMENT_ADDR $end
$upscope $end
$scope module SAT $end
$var wire 21 ~ i_psum [20:0] $end
$var reg 16 !! o_psum [15:0] $end
$var parameter 0 "! I_SUM_BW $end
$var parameter 0 #! O_SUM_BW $end
$upscope $end
$upscope $end
$scope module CONV_SINGLE[0].genblk1.DLY $end
$var wire 1 9 clk $end
$var wire 1 : rst_n $end
$var wire 16 P i_psum [15:0] $end
$var wire 16 $! o_psum [15:0] $end
$var parameter 0 %! DELAY_NB $end
$var parameter 0 &! SUM_BW $end
$upscope $end
$scope module CONV_SINGLE[1].genblk1.conv_single $end
$var wire 1 9 clk $end
$var wire 1 : rst_n $end
$var wire 1 > i_w_en $end
$var wire 8 @ i_x [7:0] $end
$var wire 5 = i_addr [4:0] $end
$var wire 16 $! i_psum [15:0] $end
$var wire 8 < i_w [7:0] $end
$var wire 16 '! o_psum [15:0] $end
$var parameter 0 (! KERNEL_SIZE $end
$var parameter 0 )! WEIGHT_BW $end
$var parameter 0 *! DATA_BW $end
$var parameter 0 +! SUM_BW $end
$var parameter 0 ,! ADDR_BW $end
$var parameter 0 -! CONV_ADDR $end
$scope module PE[0].genblk1.pe $end
$var wire 1 9 clk $end
$var wire 1 : rst_n $end
$var wire 1 > i_w_en $end
$var wire 5 = i_addr [4:0] $end
$var wire 8 < i_w [7:0] $end
$var wire 8 @ i_x [7:0] $end
$var wire 16 $! i_psum [15:0] $end
$var reg 17 .! o_psum [16:0] $end
$var reg 8 /! weight [7:0] $end
$var parameter 0 0! WEIGHT_BW $end
$var parameter 0 1! DATA_BW $end
$var parameter 0 2! SUM_BW $end
$var parameter 0 3! ADDR_BW $end
$var parameter 0 4! ELEMENT_ADDR $end
$upscope $end
$scope module PE[1].genblk1.pe $end
$var wire 1 9 clk $end
$var wire 1 : rst_n $end
$var wire 1 > i_w_en $end
$var wire 5 = i_addr [4:0] $end
$var wire 8 < i_w [7:0] $end
$var wire 8 @ i_x [7:0] $end
$var wire 17 5! i_psum [16:0] $end
$var reg 18 6! o_psum [17:0] $end
$var reg 8 7! weight [7:0] $end
$var parameter 0 8! WEIGHT_BW $end
$var parameter 0 9! DATA_BW $end
$var parameter 0 :! SUM_BW $end
$var parameter 0 ;! ADDR_BW $end
$var parameter 0 <! ELEMENT_ADDR $end
$upscope $end
$scope module PE[2].genblk1.pe $end
$var wire 1 9 clk $end
$var wire 1 : rst_n $end
$var wire 1 > i_w_en $end
$var wire 5 = i_addr [4:0] $end
$var wire 8 < i_w [7:0] $end
$var wire 8 @ i_x [7:0] $end
$var wire 18 =! i_psum [17:0] $end
$var reg 19 >! o_psum [18:0] $end
$var reg 8 ?! weight [7:0] $end
$var parameter 0 @! WEIGHT_BW $end
$var parameter 0 A! DATA_BW $end
$var parameter 0 B! SUM_BW $end
$var parameter 0 C! ADDR_BW $end
$var parameter 0 D! ELEMENT_ADDR $end
$upscope $end
$scope module PE[3].genblk1.pe $end
$var wire 1 9 clk $end
$var wire 1 : rst_n $end
$var wire 1 > i_w_en $end
$var wire 5 = i_addr [4:0] $end
$var wire 8 < i_w [7:0] $end
$var wire 8 @ i_x [7:0] $end
$var wire 19 E! i_psum [18:0] $end
$var reg 20 F! o_psum [19:0] $end
$var reg 8 G! weight [7:0] $end
$var parameter 0 H! WEIGHT_BW $end
$var parameter 0 I! DATA_BW $end
$var parameter 0 J! SUM_BW $end
$var parameter 0 K! ADDR_BW $end
$var parameter 0 L! ELEMENT_ADDR $end
$upscope $end
$scope module PE[4].genblk1.pe $end
$var wire 1 9 clk $end
$var wire 1 : rst_n $end
$var wire 1 > i_w_en $end
$var wire 5 = i_addr [4:0] $end
$var wire 8 < i_w [7:0] $end
$var wire 8 @ i_x [7:0] $end
$var wire 20 M! i_psum [19:0] $end
$var reg 21 N! o_psum [20:0] $end
$var reg 8 O! weight [7:0] $end
$var parameter 0 P! WEIGHT_BW $end
$var parameter 0 Q! DATA_BW $end
$var parameter 0 R! SUM_BW $end
$var parameter 0 S! ADDR_BW $end
$var parameter 0 T! ELEMENT_ADDR $end
$upscope $end
$scope module SAT $end
$var wire 21 U! i_psum [20:0] $end
$var reg 16 V! o_psum [15:0] $end
$var parameter 0 W! I_SUM_BW $end
$var parameter 0 X! O_SUM_BW $end
$upscope $end
$upscope $end
$scope module CONV_SINGLE[1].genblk1.DLY $end
$var wire 1 9 clk $end
$var wire 1 : rst_n $end
$var wire 16 '! i_psum [15:0] $end
$var wire 16 Y! o_psum [15:0] $end
$var parameter 0 Z! DELAY_NB $end
$var parameter 0 [! SUM_BW $end
$upscope $end
$scope module CONV_SINGLE[2].genblk1.conv_single $end
$var wire 1 9 clk $end
$var wire 1 : rst_n $end
$var wire 1 > i_w_en $end
$var wire 8 @ i_x [7:0] $end
$var wire 5 = i_addr [4:0] $end
$var wire 16 Y! i_psum [15:0] $end
$var wire 8 < i_w [7:0] $end
$var wire 16 \! o_psum [15:0] $end
$var parameter 0 ]! KERNEL_SIZE $end
$var parameter 0 ^! WEIGHT_BW $end
$var parameter 0 _! DATA_BW $end
$var parameter 0 `! SUM_BW $end
$var parameter 0 a! ADDR_BW $end
$var parameter 0 b! CONV_ADDR $end
$scope module PE[0].genblk1.pe $end
$var wire 1 9 clk $end
$var wire 1 : rst_n $end
$var wire 1 > i_w_en $end
$var wire 5 = i_addr [4:0] $end
$var wire 8 < i_w [7:0] $end
$var wire 8 @ i_x [7:0] $end
$var wire 16 Y! i_psum [15:0] $end
$var reg 17 c! o_psum [16:0] $end
$var reg 8 d! weight [7:0] $end
$var parameter 0 e! WEIGHT_BW $end
$var parameter 0 f! DATA_BW $end
$var parameter 0 g! SUM_BW $end
$var parameter 0 h! ADDR_BW $end
$var parameter 0 i! ELEMENT_ADDR $end
$upscope $end
$scope module PE[1].genblk1.pe $end
$var wire 1 9 clk $end
$var wire 1 : rst_n $end
$var wire 1 > i_w_en $end
$var wire 5 = i_addr [4:0] $end
$var wire 8 < i_w [7:0] $end
$var wire 8 @ i_x [7:0] $end
$var wire 17 j! i_psum [16:0] $end
$var reg 18 k! o_psum [17:0] $end
$var reg 8 l! weight [7:0] $end
$var parameter 0 m! WEIGHT_BW $end
$var parameter 0 n! DATA_BW $end
$var parameter 0 o! SUM_BW $end
$var parameter 0 p! ADDR_BW $end
$var parameter 0 q! ELEMENT_ADDR $end
$upscope $end
$scope module PE[2].genblk1.pe $end
$var wire 1 9 clk $end
$var wire 1 : rst_n $end
$var wire 1 > i_w_en $end
$var wire 5 = i_addr [4:0] $end
$var wire 8 < i_w [7:0] $end
$var wire 8 @ i_x [7:0] $end
$var wire 18 r! i_psum [17:0] $end
$var reg 19 s! o_psum [18:0] $end
$var reg 8 t! weight [7:0] $end
$var parameter 0 u! WEIGHT_BW $end
$var parameter 0 v! DATA_BW $end
$var parameter 0 w! SUM_BW $end
$var parameter 0 x! ADDR_BW $end
$var parameter 0 y! ELEMENT_ADDR $end
$upscope $end
$scope module PE[3].genblk1.pe $end
$var wire 1 9 clk $end
$var wire 1 : rst_n $end
$var wire 1 > i_w_en $end
$var wire 5 = i_addr [4:0] $end
$var wire 8 < i_w [7:0] $end
$var wire 8 @ i_x [7:0] $end
$var wire 19 z! i_psum [18:0] $end
$var reg 20 {! o_psum [19:0] $end
$var reg 8 |! weight [7:0] $end
$var parameter 0 }! WEIGHT_BW $end
$var parameter 0 ~! DATA_BW $end
$var parameter 0 !" SUM_BW $end
$var parameter 0 "" ADDR_BW $end
$var parameter 0 #" ELEMENT_ADDR $end
$upscope $end
$scope module PE[4].genblk1.pe $end
$var wire 1 9 clk $end
$var wire 1 : rst_n $end
$var wire 1 > i_w_en $end
$var wire 5 = i_addr [4:0] $end
$var wire 8 < i_w [7:0] $end
$var wire 8 @ i_x [7:0] $end
$var wire 20 $" i_psum [19:0] $end
$var reg 21 %" o_psum [20:0] $end
$var reg 8 &" weight [7:0] $end
$var parameter 0 '" WEIGHT_BW $end
$var parameter 0 (" DATA_BW $end
$var parameter 0 )" SUM_BW $end
$var parameter 0 *" ADDR_BW $end
$var parameter 0 +" ELEMENT_ADDR $end
$upscope $end
$scope module SAT $end
$var wire 21 ," i_psum [20:0] $end
$var reg 16 -" o_psum [15:0] $end
$var parameter 0 ." I_SUM_BW $end
$var parameter 0 /" O_SUM_BW $end
$upscope $end
$upscope $end
$scope module CONV_SINGLE[2].genblk1.DLY $end
$var wire 1 9 clk $end
$var wire 1 : rst_n $end
$var wire 16 \! i_psum [15:0] $end
$var wire 16 0" o_psum [15:0] $end
$var parameter 0 1" DELAY_NB $end
$var parameter 0 2" SUM_BW $end
$upscope $end
$scope module CONV_SINGLE[3].genblk1.conv_single $end
$var wire 1 9 clk $end
$var wire 1 : rst_n $end
$var wire 1 > i_w_en $end
$var wire 8 @ i_x [7:0] $end
$var wire 5 = i_addr [4:0] $end
$var wire 16 0" i_psum [15:0] $end
$var wire 8 < i_w [7:0] $end
$var wire 16 3" o_psum [15:0] $end
$var parameter 0 4" KERNEL_SIZE $end
$var parameter 0 5" WEIGHT_BW $end
$var parameter 0 6" DATA_BW $end
$var parameter 0 7" SUM_BW $end
$var parameter 0 8" ADDR_BW $end
$var parameter 0 9" CONV_ADDR $end
$scope module PE[0].genblk1.pe $end
$var wire 1 9 clk $end
$var wire 1 : rst_n $end
$var wire 1 > i_w_en $end
$var wire 5 = i_addr [4:0] $end
$var wire 8 < i_w [7:0] $end
$var wire 8 @ i_x [7:0] $end
$var wire 16 0" i_psum [15:0] $end
$var reg 17 :" o_psum [16:0] $end
$var reg 8 ;" weight [7:0] $end
$var parameter 0 <" WEIGHT_BW $end
$var parameter 0 =" DATA_BW $end
$var parameter 0 >" SUM_BW $end
$var parameter 0 ?" ADDR_BW $end
$var parameter 0 @" ELEMENT_ADDR $end
$upscope $end
$scope module PE[1].genblk1.pe $end
$var wire 1 9 clk $end
$var wire 1 : rst_n $end
$var wire 1 > i_w_en $end
$var wire 5 = i_addr [4:0] $end
$var wire 8 < i_w [7:0] $end
$var wire 8 @ i_x [7:0] $end
$var wire 17 A" i_psum [16:0] $end
$var reg 18 B" o_psum [17:0] $end
$var reg 8 C" weight [7:0] $end
$var parameter 0 D" WEIGHT_BW $end
$var parameter 0 E" DATA_BW $end
$var parameter 0 F" SUM_BW $end
$var parameter 0 G" ADDR_BW $end
$var parameter 0 H" ELEMENT_ADDR $end
$upscope $end
$scope module PE[2].genblk1.pe $end
$var wire 1 9 clk $end
$var wire 1 : rst_n $end
$var wire 1 > i_w_en $end
$var wire 5 = i_addr [4:0] $end
$var wire 8 < i_w [7:0] $end
$var wire 8 @ i_x [7:0] $end
$var wire 18 I" i_psum [17:0] $end
$var reg 19 J" o_psum [18:0] $end
$var reg 8 K" weight [7:0] $end
$var parameter 0 L" WEIGHT_BW $end
$var parameter 0 M" DATA_BW $end
$var parameter 0 N" SUM_BW $end
$var parameter 0 O" ADDR_BW $end
$var parameter 0 P" ELEMENT_ADDR $end
$upscope $end
$scope module PE[3].genblk1.pe $end
$var wire 1 9 clk $end
$var wire 1 : rst_n $end
$var wire 1 > i_w_en $end
$var wire 5 = i_addr [4:0] $end
$var wire 8 < i_w [7:0] $end
$var wire 8 @ i_x [7:0] $end
$var wire 19 Q" i_psum [18:0] $end
$var reg 20 R" o_psum [19:0] $end
$var reg 8 S" weight [7:0] $end
$var parameter 0 T" WEIGHT_BW $end
$var parameter 0 U" DATA_BW $end
$var parameter 0 V" SUM_BW $end
$var parameter 0 W" ADDR_BW $end
$var parameter 0 X" ELEMENT_ADDR $end
$upscope $end
$scope module PE[4].genblk1.pe $end
$var wire 1 9 clk $end
$var wire 1 : rst_n $end
$var wire 1 > i_w_en $end
$var wire 5 = i_addr [4:0] $end
$var wire 8 < i_w [7:0] $end
$var wire 8 @ i_x [7:0] $end
$var wire 20 Y" i_psum [19:0] $end
$var reg 21 Z" o_psum [20:0] $end
$var reg 8 [" weight [7:0] $end
$var parameter 0 \" WEIGHT_BW $end
$var parameter 0 ]" DATA_BW $end
$var parameter 0 ^" SUM_BW $end
$var parameter 0 _" ADDR_BW $end
$var parameter 0 `" ELEMENT_ADDR $end
$upscope $end
$scope module SAT $end
$var wire 21 a" i_psum [20:0] $end
$var reg 16 b" o_psum [15:0] $end
$var parameter 0 c" I_SUM_BW $end
$var parameter 0 d" O_SUM_BW $end
$upscope $end
$upscope $end
$scope module CONV_SINGLE[3].genblk1.DLY $end
$var wire 1 9 clk $end
$var wire 1 : rst_n $end
$var wire 16 3" i_psum [15:0] $end
$var wire 16 e" o_psum [15:0] $end
$var parameter 0 f" DELAY_NB $end
$var parameter 0 g" SUM_BW $end
$upscope $end
$scope module CONV_SINGLE[4].genblk1.conv_single $end
$var wire 1 9 clk $end
$var wire 1 : rst_n $end
$var wire 1 > i_w_en $end
$var wire 8 @ i_x [7:0] $end
$var wire 5 = i_addr [4:0] $end
$var wire 16 e" i_psum [15:0] $end
$var wire 8 < i_w [7:0] $end
$var wire 16 A o_psum [15:0] $end
$var parameter 0 h" KERNEL_SIZE $end
$var parameter 0 i" WEIGHT_BW $end
$var parameter 0 j" DATA_BW $end
$var parameter 0 k" SUM_BW $end
$var parameter 0 l" ADDR_BW $end
$var parameter 0 m" CONV_ADDR $end
$scope module PE[0].genblk1.pe $end
$var wire 1 9 clk $end
$var wire 1 : rst_n $end
$var wire 1 > i_w_en $end
$var wire 5 = i_addr [4:0] $end
$var wire 8 < i_w [7:0] $end
$var wire 8 @ i_x [7:0] $end
$var wire 16 e" i_psum [15:0] $end
$var reg 17 n" o_psum [16:0] $end
$var reg 8 o" weight [7:0] $end
$var parameter 0 p" WEIGHT_BW $end
$var parameter 0 q" DATA_BW $end
$var parameter 0 r" SUM_BW $end
$var parameter 0 s" ADDR_BW $end
$var parameter 0 t" ELEMENT_ADDR $end
$upscope $end
$scope module PE[1].genblk1.pe $end
$var wire 1 9 clk $end
$var wire 1 : rst_n $end
$var wire 1 > i_w_en $end
$var wire 5 = i_addr [4:0] $end
$var wire 8 < i_w [7:0] $end
$var wire 8 @ i_x [7:0] $end
$var wire 17 u" i_psum [16:0] $end
$var reg 18 v" o_psum [17:0] $end
$var reg 8 w" weight [7:0] $end
$var parameter 0 x" WEIGHT_BW $end
$var parameter 0 y" DATA_BW $end
$var parameter 0 z" SUM_BW $end
$var parameter 0 {" ADDR_BW $end
$var parameter 0 |" ELEMENT_ADDR $end
$upscope $end
$scope module PE[2].genblk1.pe $end
$var wire 1 9 clk $end
$var wire 1 : rst_n $end
$var wire 1 > i_w_en $end
$var wire 5 = i_addr [4:0] $end
$var wire 8 < i_w [7:0] $end
$var wire 8 @ i_x [7:0] $end
$var wire 18 }" i_psum [17:0] $end
$var reg 19 ~" o_psum [18:0] $end
$var reg 8 !# weight [7:0] $end
$var parameter 0 "# WEIGHT_BW $end
$var parameter 0 ## DATA_BW $end
$var parameter 0 $# SUM_BW $end
$var parameter 0 %# ADDR_BW $end
$var parameter 0 &# ELEMENT_ADDR $end
$upscope $end
$scope module PE[3].genblk1.pe $end
$var wire 1 9 clk $end
$var wire 1 : rst_n $end
$var wire 1 > i_w_en $end
$var wire 5 = i_addr [4:0] $end
$var wire 8 < i_w [7:0] $end
$var wire 8 @ i_x [7:0] $end
$var wire 19 '# i_psum [18:0] $end
$var reg 20 (# o_psum [19:0] $end
$var reg 8 )# weight [7:0] $end
$var parameter 0 *# WEIGHT_BW $end
$var parameter 0 +# DATA_BW $end
$var parameter 0 ,# SUM_BW $end
$var parameter 0 -# ADDR_BW $end
$var parameter 0 .# ELEMENT_ADDR $end
$upscope $end
$scope module PE[4].genblk1.pe $end
$var wire 1 9 clk $end
$var wire 1 : rst_n $end
$var wire 1 > i_w_en $end
$var wire 5 = i_addr [4:0] $end
$var wire 8 < i_w [7:0] $end
$var wire 8 @ i_x [7:0] $end
$var wire 20 /# i_psum [19:0] $end
$var reg 21 0# o_psum [20:0] $end
$var reg 8 1# weight [7:0] $end
$var parameter 0 2# WEIGHT_BW $end
$var parameter 0 3# DATA_BW $end
$var parameter 0 4# SUM_BW $end
$var parameter 0 5# ADDR_BW $end
$var parameter 0 6# ELEMENT_ADDR $end
$upscope $end
$scope module SAT $end
$var wire 21 7# i_psum [20:0] $end
$var reg 16 8# o_psum [15:0] $end
$var parameter 0 9# I_SUM_BW $end
$var parameter 0 :# O_SUM_BW $end
$upscope $end
$upscope $end
$scope module CONTROL $end
$var wire 1 9 clk $end
$var wire 1 : rst_n $end
$var wire 1 ? i_valid $end
$var reg 1 ;# o_valid $end
$var reg 1 <# valid $end
$var reg 5 =# i [4:0] $end
$var reg 5 ># j [4:0] $end
$var parameter 0 ?# DATA_SIZE $end
$var parameter 0 @# KERNEL_SIZE $end
$var parameter 0 A# KERNEL_BW $end
$var parameter 0 B# STRIDE $end
$upscope $end
$scope module DLY_CON $end
$var wire 1 9 clk $end
$var wire 1 : rst_n $end
$var wire 1 B i_psum [0:0] $end
$var wire 1 ) o_psum [0:0] $end
$var parameter 0 C# DELAY_NB $end
$var parameter 0 D# SUM_BW $end
$upscope $end
$upscope $end
$upscope $end
$enddefinitions $end
#0
$dumpvars
0!
b0 !!
b10011 !"
b0 !#
0"
b10101 "!
b101 ""
b1000 "#
b0 #
b10000 #!
b1101 #"
b1000 ##
b0 $
b0 $!
b0 $"
b10010 $#
b0 %
b11011 %!
b0 %"
b101 %#
0&
b10000 &!
b0 &"
b10110 &#
0'
b0 '!
b1000 '"
b0 '#
b0 (
b101 (!
b1000 ("
b0 (#
0)
b1000 )!
b10100 )"
b0 )#
bx *
b1000 *!
b101 *"
b1000 *#
b0 +
b10000 +!
b1110 +"
b1000 +#
b0 ,
b101 ,!
b0 ,"
b10011 ,#
bx -
b1 -!
b0 -"
b101 -#
bx .
b0 .!
b10101 ."
b10111 .#
bx /
b0 /!
b10000 /"
b0 /#
bx 0
b1000 0!
b0 0"
b0 0#
b101 1
b1000 1!
b11011 1"
b0 1#
b1000 2
b10000 2!
b10000 2"
b1000 2#
b1000 3
b101 3!
b0 3"
b1000 3#
b101 4
b101 4!
b101 4"
b10100 4#
b10000 5
b0 5!
b1000 5"
b101 5#
b101 6
b0 6!
b1000 6"
b11000 6#
b100000 7
b0 7!
b10000 7"
b0 7#
b1 8
b1000 8!
b101 8"
b0 8#
09
b1000 9!
b11 9"
b10101 9#
0:
b10001 :!
b0 :"
b10000 :#
b0 ;
b101 ;!
b0 ;"
0;#
b0 <
b110 <!
b1000 <"
0<#
b0 =
b0 =!
b1000 ="
b0 =#
0>
b0 >!
b10000 >"
b0 >#
0?
b0 ?!
b101 ?"
b100000 ?#
b0 @
b1000 @!
b1111 @"
b101 @#
b0 A
b1000 A!
b0 A"
b101 A#
0B
b10010 B!
b0 B"
b1 B#
b101 C
b101 C!
b0 C"
b10000101 C#
b1000 D
b111 D!
b1000 D"
b1 D#
b1000 E
b0 E!
b1000 E"
b101 F
b0 F!
b10001 F"
b10000 G
b0 G!
b101 G"
b101 H
b1000 H!
b10000 H"
b100000 I
b1000 I!
b0 I"
b1 J
b10011 J!
b0 J"
b11011 K
b101 K!
b0 K"
b10000101 L
b1000 L!
b1000 L"
b0 M
b0 M!
b1000 M"
b1000 N
b0 N!
b10010 N"
b0 O
b0 O!
b101 O"
b0 P
b1000 P!
b10001 P"
b101 Q
b1000 Q!
b0 Q"
b1000 R
b10100 R!
b0 R"
b1000 S
b101 S!
b0 S"
b10000 T
b1001 T!
b1000 T"
b101 U
b0 U!
b1000 U"
b0 V
b0 V!
b10011 V"
b0 W
b10101 W!
b101 W"
b0 X
b10000 X!
b10010 X"
b1000 Y
b0 Y!
b0 Y"
b1000 Z
b11011 Z!
b0 Z"
b10000 [
b10000 [!
b0 ["
b101 \
b0 \!
b1000 \"
b0 ]
b101 ]!
b1000 ]"
b0 ^
b1000 ^!
b10100 ^"
b0 _
b1000 _!
b101 _"
b0 `
b10000 `!
b10011 `"
b1000 a
b101 a!
b0 a"
b1000 b
b10 b!
b0 b"
b10001 c
b0 c!
b10101 c"
b101 d
b0 d!
b10000 d"
b1 e
b1000 e!
b0 e"
b0 f
b1000 f!
b11011 f"
b0 g
b10000 g!
b10000 g"
b0 h
b101 h!
b101 h"
b1000 i
b1010 i!
b1000 i"
b1000 j
b0 j!
b1000 j"
b10010 k
b0 k!
b10000 k"
b101 l
b0 l!
b101 l"
b10 m
b1000 m!
b100 m"
b0 n
b1000 n!
b0 n"
b0 o
b10001 o!
b0 o"
b0 p
b101 p!
b1000 p"
b1000 q
b1011 q!
b1000 q"
b1000 r
b0 r!
b10000 r"
b10011 s
b0 s!
b101 s"
b101 t
b0 t!
b10100 t"
b11 u
b1000 u!
b0 u"
b0 v
b1000 v!
b0 v"
b0 w
b10010 w!
b0 w"
b0 x
b101 x!
b1000 x"
b1000 y
b1100 y!
b1000 y"
b1000 z
b0 z!
b10001 z"
b10100 {
b0 {!
b101 {"
b101 |
b0 |!
b10101 |"
b100 }
b1000 }!
b0 }"
b0 ~
b1000 ~!
b0 ~"
$end
#5000
1!
19
#6000
1"
1:
#10000
0!
09
#15000
1!
19
#16000
1&
1'
b0 *
b0 /
b0 0
1>
1?
#17000
b0 %
b11111111111111111111111111111111 -
b11111111111111111111111111111111 .
#20000
0!
09
#25000
1!
b1 /
19
1;#
1<#
1B
#26000
b1 %
b1 =
#30000
0!
09
#35000
1!
b10 /
19
1;#
b1 >#
#36000
b10 %
b10 =
#40000
0!
09
#45000
1!
b11 /
19
1;#
b10 >#
#46000
b11 %
b11 =
#50000
0!
09
#55000
1!
b100 /
19
1;#
b11 >#
#56000
b100 %
b100 =
#60000
0!
09
#65000
1!
b101 /
19
1;#
b100 >#
#66000
b101 %
b101 =
#70000
0!
09
#75000
1!
b110 /
19
1;#
b101 >#
#76000
b110 %
b110 =
#80000
0!
09
#85000
1!
b111 /
19
1;#
b110 >#
#86000
b111 %
b111 =
#90000
0!
09
#95000
1!
b1000 /
19
1;#
b111 >#
#96000
b1000 %
b1000 =
#100000
0!
09
#105000
1!
b1001 /
19
1;#
b1000 >#
#106000
b1001 %
b1001 =
#110000
0!
09
#115000
1!
b1010 /
19
1;#
b1001 >#
#116000
b1010 %
b1010 =
#120000
0!
09
#125000
1!
b1011 /
19
1;#
b1010 >#
#126000
b1011 %
b1011 =
#130000
0!
09
#135000
1!
b1100 /
19
1;#
b1011 >#
#136000
b1100 %
b1100 =
#140000
0!
09
#145000
1!
b1101 /
19
1;#
b1100 >#
#146000
b1101 %
b1101 =
#150000
0!
09
#155000
1!
b1110 /
19
1;#
b1101 >#
#156000
b1110 %
b1110 =
#160000
0!
09
#165000
1!
b1111 /
19
1;#
b1110 >#
#166000
b1111 %
b1111 =
#170000
0!
09
#175000
1!
b10000 /
19
1;#
b1111 >#
#176000
b10000 %
b10000 =
#180000
0!
09
#185000
1!
b10001 /
19
1;#
b10000 >#
#186000
b10001 %
b10001 =
#190000
0!
09
#195000
1!
b10010 /
19
1;#
b10001 >#
#196000
b10010 %
b10010 =
#200000
0!
09
#205000
1!
b10011 /
19
1;#
b10010 >#
#206000
b10011 %
b10011 =
#210000
0!
09
#215000
1!
b10100 /
19
1;#
b10011 >#
#216000
b10100 %
b10100 =
#220000
0!
09
#225000
1!
b10101 /
19
1;#
b10100 >#
#226000
b10101 %
b10101 =
#230000
0!
09
#235000
1!
b10110 /
19
1;#
b10101 >#
#236000
b10110 %
b10110 =
#240000
0!
09
#245000
1!
b10111 /
19
1;#
b10110 >#
#246000
b10111 %
b10111 =
#250000
0!
09
#255000
1!
b11000 /
19
1;#
b10111 >#
#256000
b11000 %
b11000 =
#260000
0!
09
#265000
1!
b11001 /
19
1;#
b11000 >#
#266000
b0 $
b0 %
0&
b0 =
0>
#270000
0!
09
#275000
1!
b11010 /
19
1;#
b11001 >#
#276000
b0 $
b0 %
#280000
0!
09
#285000
1!
b11011 /
19
1;#
b11010 >#
#286000
b0 $
b0 %
#290000
0!
09
#295000
1!
b11100 /
19
1;#
b11011 >#
#296000
b0 $
b0 %
#300000
0!
09
#305000
1!
b11101 /
19
0;#
b11100 >#
0B
#306000
b0 $
b0 %
#310000
0!
09
#315000
1!
b11110 /
19
b11101 >#
#316000
b0 $
b0 %
